SURE 2025 – Exploring data: into the tidyverse
…
summarize()

filter()

Use filter() to extract ROWS (observations) that meet certain conditions

Need to specify a logical condition (aka boolean expression)

filter()

Example: Extract batting stats for 2 leagues AL and NL only

filter(Batting, lgID %in% c("AL", "NL")) # or filter(Batting, lgID == "AL" | lgID == "NL")

# A tibble: 110,214 × 22
   playerID  yearID stint teamID lgID      G    AB     R     H   X2B   X3B    HR
   <chr>      <int> <int> <fct>  <fct> <int> <int> <int> <int> <int> <int> <int>
 1 aardsda01   2004     1 SFN    NL       11     0     0     0     0     0     0
 2 aardsda01   2006     1 CHN    NL       45     2     0     0     0     0     0
 3 aardsda01   2007     1 CHA    AL       25     0     0     0     0     0     0
 4 aardsda01   2008     1 BOS    AL       47     1     0     0     0     0     0
 5 aardsda01   2009     1 SEA    AL       73     0     0     0     0     0     0
 6 aardsda01   2010     1 SEA    AL       53     0     0     0     0     0     0
 7 aardsda01   2012     1 NYA    AL        1     0     0     0     0     0     0
 8 aardsda01   2013     1 NYN    NL       43     0     0     0     0     0     0
 9 aardsda01   2015     1 ATL    NL       33     1     0     0     0     0     0
10 aaronha01   1954     1 ML1    NL      122   468    58   131    27     6    13
# ℹ 110,204 more rows
# ℹ 10 more variables: RBI <int>, SB <int>, CS <int>, BB <int>, SO <int>,
#   IBB <int>, HBP <int>, SH <int>, SF <int>, GIDP <int>

filter()

Example: Extract batting stats for Pirates players in 2022

# multiple conditions
filter(Batting, yearID == 2022 & teamID == "PIT")

# A tibble: 68 × 22
   playerID  yearID stint teamID lgID      G    AB     R     H   X2B   X3B    HR
   <chr>      <int> <int> <fct>  <fct> <int> <int> <int> <int> <int> <int> <int>
 1 alforan01   2022     1 PIT    NL        2     4     0     1     0     0     0
 2 alldrca01   2022     1 PIT    NL        1     0     0     0     0     0     0
 3 allengr01   2022     1 PIT    NL       46   118    17    22     4     0     2
 4 andujmi01   2022     2 PIT    NL        9    36     4     9     3     1     0
 5 baeji01     2022     1 PIT    NL       10    33     5    11     3     0     0
 6 bandaan01   2022     1 PIT    NL       23     0     0     0     0     0     0
 7 banuema01   2022     2 PIT    NL       31     0     0     0     0     0     0
 8 bednada01   2022     1 PIT    NL       45     0     0     0     0     0     0
 9 beedety01   2022     2 PIT    NL       25     0     0     0     0     0     0
10 briceau01   2022     1 PIT    NL        4     0     0     0     0     0     0
# ℹ 58 more rows
# ℹ 10 more variables: RBI <int>, SB <int>, CS <int>, BB <int>, SO <int>,
#   IBB <int>, HBP <int>, SH <int>, SF <int>, GIDP <int>
…
filter(Batting, team == PIT)

yay

filter(Batting, team == "PIT")

select()

Use select() to extract COLUMNS (variables) of interest

Just simply specify the column names…

select(Batting, playerID, yearID, G, AB, R, H, HR, BB)

# A tibble: 113,799 × 8
   playerID  yearID     G    AB     R     H    HR    BB
   <chr>      <int> <int> <int> <int> <int> <int> <int>
 1 aardsda01   2004    11     0     0     0     0     0
 2 aardsda01   2006    45     2     0     0     0     0
 3 aardsda01   2007    25     0     0     0     0     0
 4 aardsda01   2008    47     1     0     0     0     0
 5 aardsda01   2009    73     0     0     0     0     0
 6 aardsda01   2010    53     0     0     0     0     0
 7 aardsda01   2012     1     0     0     0     0     0
 8 aardsda01   2013    43     0     0     0     0     0
 9 aardsda01   2015    33     1     0     0     0     0
10 aaronha01   1954   122   468    58   131    13    28
# ℹ 113,789 more rows
…
Use mutate() to create new variables

New variables created via mutate() are usually based on existing variables

Make sure to give your new variable a name

Note that naming the new variable the same as the existing variable will overwrite the original column

mutate()

Example: Get the batting average and strikeout-to-walk ratio for every player

mutate(Batting, batting_avg = H / AB, so_bb_ratio = SO / BB)

# A tibble: 113,799 × 24
   playerID  yearID stint teamID lgID      G    AB     R     H   X2B   X3B    HR
   <chr>      <int> <int> <fct>  <fct> <int> <int> <int> <int> <int> <int> <int>
 1 aardsda01   2004     1 SFN    NL       11     0     0     0     0     0     0
 2 aardsda01   2006     1 CHN    NL       45     2     0     0     0     0     0
 3 aardsda01   2007     1 CHA    AL       25     0     0     0     0     0     0
 4 aardsda01   2008     1 BOS    AL       47     1     0     0     0     0     0
 5 aardsda01   2009     1 SEA    AL       73     0     0     0     0     0     0
 6 aardsda01   2010     1 SEA    AL       53     0     0     0     0     0     0
 7 aardsda01   2012     1 NYA    AL        1     0     0     0     0     0     0
 8 aardsda01   2013     1 NYN    NL       43     0     0     0     0     0     0
 9 aardsda01   2015     1 ATL    NL       33     1     0     0     0     0     0
10 aaronha01   1954     1 ML1    NL      122   468    58   131    27     6    13
# ℹ 113,789 more rows
# ℹ 12 more variables: RBI <int>, SB <int>, CS <int>, BB <int>, SO <int>,
#   IBB <int>, HBP <int>, SH <int>, SF <int>, GIDP <int>, batting_avg <dbl>,
#   so_bb_ratio <dbl>

arrange()

Sort observations (rows) by variables (columns)

ascending order is the default (low to high for numeric columns, alphabetical order for character columns)

Example: Who holds the single-season home run record?

arrange(Batting, desc(HR)) # desc() for descending order

# A tibble: 113,799 × 22
   playerID  yearID stint teamID lgID      G    AB     R     H   X2B   X3B    HR
   <chr>      <int> <int> <fct>  <fct> <int> <int> <int> <int> <int> <int> <int>
 1 bondsba01   2001     1 SFN    NL      153   476   129   156    32     2    73
 2 mcgwima01   1998     1 SLN    NL      155   509   130   152    21     0    70
 3 sosasa01    1998     1 CHN    NL      159   643   134   198    20     0    66
 4 mcgwima01   1999     1 SLN    NL      153   521   118   145    21     1    65
 5 sosasa01    2001     1 CHN    NL      160   577   146   189    34     5    64
 6 sosasa01    1999     1 CHN    NL      162   625   114   180    24     2    63
 7 judgeaa01   2022     1 NYA    AL      157   570   133   177    28     0    62
 8 marisro01   1961     1 NYA    AL      161   590   132   159    16     4    61
 9 ruthba01    1927     1 NYA    AL      151   540   158   192    29     8    60
10 ruthba01    1921     1 NYA    AL      152   540   177   204    44    16    59
# ℹ 113,789 more rows
# ℹ 10 more variables: RBI <int>, SB <int>, CS <int>, BB <int>, SO <int>,
#   IBB <int>, HBP <int>, SH <int>, SF <int>, GIDP <int>

arrange()

Example: arrange by multiple columns — at bats from high to low (first sort), then home runs from low to high (second sort) — variable order matters

arrange(Batting, desc(AB), HR)

# A tibble: 113,799 × 22
   playerID  yearID stint teamID lgID      G    AB     R     H   X2B   X3B    HR
   <chr>      <int> <int> <fct>  <fct> <int> <int> <int> <int> <int> <int> <int>
 1 rolliji01   2007     1 PHI    NL      162   716   139   212    38    20    30
 2 wilsowi02   1980     1 KCA    AL      161   705   133   230    28    15     3
 3 suzukic01   2004     1 SEA    AL      161   704   101   262    24     5     8
 4 samueju01   1984     1 PHI    NL      160   701   105   191    36    19    15
 5 pierrju01   2006     1 CHN    NL      162   699    87   204    32    13     3
 6 cashda01    1975     1 PHI    NL      162   699   111   213    40     3     4
 7 alouma01    1969     1 PIT    NL      162   698   105   231    41     6     1
 8 reyesjo01   2005     1 NYN    NL      161   696    99   190    24    17     7
 9 jensewo01   1936     1 PIT    NL      153   696    98   197    34    10    10
10 soriaal01   2002     1 NYA    AL      156   696   128   209    51     2    39
# ℹ 113,789 more rows
# ℹ 10 more variables: RBI <int>, SB <int>, CS <int>, BB <int>, SO <int>,
#   IBB <int>, HBP <int>, SH <int>, SF <int>, GIDP <int>
…
mutate(): create a new column for batting average

arrange(): sort by batting average in descending order

select(): report player name, at bats, and batting average

Performing multiple operations

Batting |> 
  filter(yearID == 2022, teamID == "PIT", AB >= 50) |> 
  mutate(batting_avg = H / AB) |> 
  arrange(desc(batting_avg)) |> 
  select(playerID, AB, batting_avg)

# A tibble: 23 × 3
   playerID     AB batting_avg
   <chr>     <int>       <dbl>
 1 newmake01   288       0.274
 2 reynobr01   542       0.262
 3 hayeske01   505       0.244
 4 marisja01    77       0.234
 5 perezro02    60       0.233
 6 castrro01   253       0.233
 7 cruzon01    331       0.233
 8 gamelbe01   371       0.232
 9 chavimi01   401       0.229
10 vogelda01   237       0.228
# ℹ 13 more rows
…
group_by() becomes powerful when combining with summarize()

After the operation at the group-level is done, use ungroup() to remove grouping

group_by() and summarize()

Example: How many home runs, strike outs, and walks did each team accumulate in each season from 2015 to 2019?

Batting |> 
  filter(yearID %in% 2015:2019) |> 
  group_by(teamID) |> 
  summarize(total_hr = sum(HR), total_so = sum(SO), total_bb = sum(BB)) |> 
  arrange(desc(total_hr))

# A tibble: 30 × 4
   teamID total_hr total_so total_bb
   <fct>     <int>    <int>    <int>
 1 NYA        1209     6659     2839
 2 HOU        1159     6294     2759
 3 TOR        1139     6741     2752
 4 LAN        1111     6751     2991
 5 BAL        1103     6914     2162
 6 TEX        1041     7008     2572
 7 SEA        1036     6693     2489
 8 MIN        1035     6694     2604
 9 OAK        1033     6474     2610
10 MIL        1031     7434     2724
# ℹ 20 more rows
…
